<?xml version="1.0" encoding="UTF-8" standalone="no"?>
<svg
   xmlns:dc="http://purl.org/dc/elements/1.1/"
   xmlns:cc="http://creativecommons.org/ns#"
   xmlns:rdf="http://www.w3.org/1999/02/22-rdf-syntax-ns#"
   xmlns:svg="http://www.w3.org/2000/svg"
   xmlns="http://www.w3.org/2000/svg"
   xmlns:sodipodi="http://sodipodi.sourceforge.net/DTD/sodipodi-0.dtd"
   xmlns:inkscape="http://www.inkscape.org/namespaces/inkscape"
   width="30"
   height="30"
   viewBox="0 0 30 30"
   fill="none"
   version="1.1"
   id="svg13"
   sodipodi:docname="suppress.svg"
   inkscape:version="0.92.5 (2060ec1f9f, 2020-04-08)">
  <metadata
     id="metadata17">
    <rdf:RDF>
      <cc:Work
         rdf:about="">
        <dc:format>image/svg+xml</dc:format>
        <dc:type
           rdf:resource="http://purl.org/dc/dcmitype/StillImage" />
        <dc:title></dc:title>
      </cc:Work>
    </rdf:RDF>
  </metadata>
  <sodipodi:namedview
     pagecolor="#ffffff"
     bordercolor="#666666"
     borderopacity="1"
     objecttolerance="10"
     gridtolerance="10"
     guidetolerance="10"
     inkscape:pageopacity="0"
     inkscape:pageshadow="2"
     inkscape:window-width="971"
     inkscape:window-height="625"
     id="namedview15"
     showgrid="false"
     inkscape:zoom="7.8666667"
     inkscape:cx="15"
     inkscape:cy="15"
     inkscape:window-x="505"
     inkscape:window-y="275"
     inkscape:window-maximized="0"
     inkscape:current-layer="svg13" />
  <g
     clip-path="url(#clip0)"
     id="g6">
    <path
       id="path2"
       fill-opacity="0.78"
       fill="#000000"
       d="M3.75 9.375V28.125C3.75 29.1563 4.59375 30 5.625 30H22.5C23.5313 30 24.375 29.1563 24.375 28.125V9.375H3.75ZM9.375 26.25H7.5V13.125H9.375V26.25ZM13.125 26.25H11.25V13.125H13.125V26.25ZM16.875 26.25H15V13.125H16.875V26.25ZM20.625 26.25H18.75V13.125H20.625V26.25Z" />
    <path
       id="path4"
       fill-opacity="0.78"
       fill="#000000"
       d="M24.8438 3.75H18.75V1.40625C18.7485 1.03375 18.5999 0.67692 18.3365 0.413517C18.0731 0.150115 17.7163 0.00148115 17.3438 0L10.7812 0C10.4087 0.00148115 10.0519 0.150115 9.78852 0.413517C9.52511 0.67692 9.37648 1.03375 9.375 1.40625V3.75H3.28125C2.90859 3.75099 2.55148 3.89947 2.28797 4.16297C2.02447 4.42648 1.87599 4.78359 1.875 5.15625V7.5H26.25V5.15625C26.249 4.78359 26.1005 4.42648 25.837 4.16297C25.5735 3.89947 25.2164 3.75099 24.8438 3.75ZM16.875 3.75H11.25V1.89938H16.875V3.75Z" />
  </g>
  <defs
     id="defs11">
    <clipPath
       id="clip0">
      <rect
         id="rect8"
         fill="#ffffff"
         height="30"
         width="30" />
    </clipPath>
  </defs>
</svg>
